{
  "content": [
    {
      "id": 85,
      "orderNumber": "SEED-ORD-85",
      "totalAmount": 232,
      "status": "CANCELLED",
      "createdAt": "2026-02-23T13:06:22.163659"
    },
    {
      "id": 84,
      "orderNumber": "SEED-ORD-84",
      "totalAmount": 206,
      "status": "DELIVERED",
      "createdAt": "2026-02-23T13:06:22.160798"
    },
    {
      "id": 83,
      "orderNumber": "SEED-ORD-83",
      "totalAmount": 415.98,
      "status": "SHIPPED",
      "createdAt": "2026-02-23T13:06:22.157543"
    },
    {
      "id": 82,
      "orderNumber": "SEED-ORD-82",
      "totalAmount": 704.99,
      "status": "CONFIRMED",
      "createdAt": "2026-02-23T13:06:22.153413"
    },
    {
      "id": 81,
      "orderNumber": "SEED-ORD-81",
      "totalAmount": 697.47,
      "status": "PENDING",
      "createdAt": "2026-02-23T13:06:22.150922"
    },
    {
      "id": 80,
      "orderNumber": "SEED-ORD-80",
      "totalAmount": 1010,
      "status": "CANCELLED",
      "createdAt": "2026-02-23T13:06:22.147881"
    },
    {
      "id": 79,
      "orderNumber": "SEED-ORD-79",
      "totalAmount": 988,
      "status": "DELIVERED",
      "createdAt": "2026-02-23T13:06:22.145666"
    },
    {
      "id": 78,
      "orderNumber": "SEED-ORD-78",
      "totalAmount": 962,
      "status": "SHIPPED",
      "createdAt": "2026-02-23T13:06:22.142644"
    },
    {
      "id": 77,
      "orderNumber": "SEED-ORD-77",
      "totalAmount": 940,
      "status": "CONFIRMED",
      "createdAt": "2026-02-23T13:06:22.140493"
    },
    {
      "id": 76,
      "orderNumber": "SEED-ORD-76",
      "totalAmount": 914,
      "status": "PENDING",
      "createdAt": "2026-02-23T13:06:22.138446"
    },
    {
      "id": 75,
      "orderNumber": "SEED-ORD-75",
      "totalAmount": 892,
      "status": "CANCELLED",
      "createdAt": "2026-02-23T13:06:22.136042"
    },
    {
      "id": 74,
      "orderNumber": "SEED-ORD-74",
      "totalAmount": 866,
      "status": "DELIVERED",
      "createdAt": "2026-02-23T13:06:22.133759"
    },
    {
      "id": 73,
      "orderNumber": "SEED-ORD-73",
      "totalAmount": 844,
      "status": "SHIPPED",
      "createdAt": "2026-02-23T13:06:22.13174"
    },
    {
      "id": 72,
      "orderNumber": "SEED-ORD-72",
      "totalAmount": 818,
      "status": "CONFIRMED",
      "createdAt": "2026-02-23T13:06:22.129726"
    },
    {
      "id": 71,
      "orderNumber": "SEED-ORD-71",
      "totalAmount": 796,
      "status": "PENDING",
      "createdAt": "2026-02-23T13:06:22.127708"
    },
    {
      "id": 70,
      "orderNumber": "SEED-ORD-70",
      "totalAmount": 770,
      "status": "CANCELLED",
      "createdAt": "2026-02-23T13:06:22.124665"
    },
    {
      "id": 69,
      "orderNumber": "SEED-ORD-69",
      "totalAmount": 748,
      "status": "DELIVERED",
      "createdAt": "2026-02-23T13:06:22.121378"
    },
    {
      "id": 68,
      "orderNumber": "SEED-ORD-68",
      "totalAmount": 722,
      "status": "SHIPPED",
      "createdAt": "2026-02-23T13:06:22.118487"
    },
    {
      "id": 67,
      "orderNumber": "SEED-ORD-67",
      "totalAmount": 700,
      "status": "CONFIRMED",
      "createdAt": "2026-02-23T13:06:22.116835"
    },
    {
      "id": 66,
      "orderNumber": "SEED-ORD-66",
      "totalAmount": 674,
      "status": "PENDING",
      "createdAt": "2026-02-23T13:06:22.109317"
    }
  ],
  "pageable": {
    "sort": {
      "sorted": true,
      "unsorted": false,
      "empty": false
    },
    "offset": 0,
    "pageSize": 20,
    "pageNumber": 0,
    "unpaged": false,
    "paged": true
  },
  "last": false,
  "totalElements": 85,
  "totalPages": 5,
  "number": 0,
  "sort": {
    "sorted": true,
    "unsorted": false,
    "empty": false
  },
  "numberOfElements": 20,
  "first": true,
  "size": 20,
  "empty": false
}