{
  "content": [
    {
      "id": 1,
      "name": "Aurora Wireless Headphones",
      "description": "Immersive over-ear headphones with adaptive noise cancelling and 40-hour battery.",
      "price": 129.99,
      "stock": 18,
      "categoryId": 1,
      "categoryName": "Audio",
      "imageUrl": "https://tse2.mm.bing.net/th/id/OIP.vTVIHODiYbK-_FK4ffZaCgHaIX?pid=Api&P=0&h=220",
      "rating": 4.6,
      "tag": "Best Seller",
      "isActive": true
    },
    {
      "id": 2,
      "name": "Nova Smartwatch Pro",
      "description": "A performance smartwatch with precision health metrics and sleek titanium casing.",
      "price": 199,
      "stock": 25,
      "categoryId": 2,
      "categoryName": "Wearables",
      "imageUrl": "https://tse4.mm.bing.net/th/id/OIP.cqhmZPvuKixu5Tl6PFQHKgAAAA?pid=Api&P=0&h=220",
      "rating": 4.3,
      "tag": "New",
      "isActive": true
    },
    {
      "id": 3,
      "name": "Pulse Gaming Keyboard",
      "description": "Mechanical keyboard with programmable RGB layers and rapid response switches.",
      "price": 89.5,
      "stock": 11,
      "categoryId": 3,
      "categoryName": "Gaming",
      "imageUrl": "https://tse4.mm.bing.net/th/id/OIP.uVvJos_mYmNdoCBEd5y7rwHaES?pid=Api&P=0&h=220",
      "rating": 4.7,
      "tag": "Limited",
      "isActive": true
    },
    {
      "id": 4,
      "name": "Orbit Laptop Stand",
      "description": "Adjustable aluminum stand that keeps your setup clean and ergonomic.",
      "price": 39.99,
      "stock": 30,
      "categoryId": 4,
      "categoryName": "Workspace",
      "imageUrl": "https://www.avlfx.com/images/com_hikashop/upload/thumbnails/430x430f/rolling_laptop_stand_-3.jpg",
      "rating": 4.4,
      "tag": "Ergonomic",
      "isActive": true
    },
    {
      "id": 5,
      "name": "Pixel Portable Speaker",
      "description": "Compact speaker with punchy bass and water-resistant build.",
      "price": 69,
      "stock": 20,
      "categoryId": 1,
      "categoryName": "Audio",
      "imageUrl": "https://down-ph.img.susercontent.com/file/096a55f1ae5d349477d687d93d562eae",
      "rating": 4.1,
      "tag": "Outdoor",
      "isActive": true
    },
    {
      "id": 6,
      "name": "Vertex VR Headset",
      "description": "Next-gen VR headset with ultra-wide field of view and precision tracking.",
      "price": 349.99,
      "stock": 6,
      "categoryId": 3,
      "categoryName": "Gaming",
      "imageUrl": "https://pics.craiyon.com/2023-10-03/344101e950fa483e984eb2e0666ed6ae.webp",
      "rating": 4.8,
      "tag": "Pro Gear",
      "isActive": true
    },
    {
      "id": 7,
      "name": "Lumen Desk Lamp",
      "description": "Adaptive desk lamp with warm gradients for late-night focus.",
      "price": 49,
      "stock": 34,
      "categoryId": 4,
      "categoryName": "Workspace",
      "imageUrl": "https://stormvintage.nl/wp-content/uploads/2023/04/IMG_2189.jpeg",
      "rating": 4.2,
      "tag": "Ambient",
      "isActive": true
    },
    {
      "id": 8,
      "name": "Flux Travel Backpack",
      "description": "Organized backpack with modular compartments and padded tech sleeve.",
      "price": 119,
      "stock": 14,
      "categoryId": 5,
      "categoryName": "Lifestyle",
      "imageUrl": "https://d119zkpqijcapd.cloudfront.net/app/public/uploads/m/2024/03/1-s1zSzSOq36YtjWya9GbGdpQ1QxRfhbBSJRMLcpzS.jpg",
      "rating": 4.5,
      "tag": "Traveler",
      "isActive": true
    },
    {
      "id": 9,
      "name": "Echo Noise-Cancelling Earbuds",
      "description": "Pocket-sized earbuds with adaptive ANC and crisp call quality.",
      "price": 89,
      "stock": 40,
      "categoryId": 1,
      "categoryName": "Audio",
      "imageUrl": "https://i.ebayimg.com/images/g/UhcAAOSwLRJmkryi/s-l500.jpg",
      "rating": 4,
      "tag": "Compact",
      "isActive": true
    },
    {
      "id": 10,
      "name": "Halo RGB Mouse",
      "description": "Precision gaming mouse with adjustable DPI and ambient lighting.",
      "price": 59.99,
      "stock": 22,
      "categoryId": 3,
      "categoryName": "Gaming",
      "imageUrl": "https://www.static-src.com/wcsstore/Indraprastha/images/catalog/full/catalog-image/97/MTA-125791153/no-brand_no-brand_full01.jpg",
      "rating": 4.4,
      "tag": "Custom",
      "isActive": true
    },
    {
      "id": 11,
      "name": "Prism Phone Gimbal",
      "description": "Cinematic stabilization for mobile creators with AI tracking.",
      "price": 149,
      "stock": 9,
      "categoryId": 6,
      "categoryName": "Creator",
      "imageUrl": "https://5.imimg.com/data5/ECOM/Default/2022/7/AP/LU/TA/142053378/prism-b23a99f3-f877-4c1e-b062-619733772627-1000x1000.jpg",
      "rating": 4.5,
      "tag": "Creator",
      "isActive": true
    },
    {
      "id": 12,
      "name": "Nimbus Desk Mat",
      "description": "Premium microfiber mat to level up your workspace and control.",
      "price": 29,
      "stock": 50,
      "categoryId": 4,
      "categoryName": "Workspace",
      "imageUrl": "https://tse2.mm.bing.net/th/id/OIP._lG4naO7aICRHqC-J6FRoAHaHa?pid=Api&P=0&h=220",
      "rating": 4.1,
      "tag": "Minimal",
      "isActive": true
    },
    {
      "id": 13,
      "name": "Demo Product 13",
      "description": "Seeded demo product 13 for integration testing and catalog listing.",
      "price": 33,
      "stock": 23,
      "categoryId": 1,
      "categoryName": "Audio",
      "imageUrl": "https://picsum.photos/seed/ecom-13/600/600",
      "rating": 4.8,
      "tag": null,
      "isActive": true
    },
    {
      "id": 14,
      "name": "Demo Product 14",
      "description": "Seeded demo product 14 for integration testing and catalog listing.",
      "price": 34,
      "stock": 24,
      "categoryId": 2,
      "categoryName": "Wearables",
      "imageUrl": "https://picsum.photos/seed/ecom-14/600/600",
      "rating": 4.9,
      "tag": null,
      "isActive": true
    },
    {
      "id": 15,
      "name": "Demo Product 15",
      "description": "Seeded demo product 15 for integration testing and catalog listing.",
      "price": 35,
      "stock": 25,
      "categoryId": 3,
      "categoryName": "Gaming",
      "imageUrl": "https://picsum.photos/seed/ecom-15/600/600",
      "rating": 3.5,
      "tag": "Featured",
      "isActive": true
    },
    {
      "id": 16,
      "name": "Demo Product 16",
      "description": "Seeded demo product 16 for integration testing and catalog listing.",
      "price": 36,
      "stock": 26,
      "categoryId": 4,
      "categoryName": "Workspace",
      "imageUrl": "https://picsum.photos/seed/ecom-16/600/600",
      "rating": 3.6,
      "tag": null,
      "isActive": true
    },
    {
      "id": 17,
      "name": "Demo Product 17",
      "description": "Seeded demo product 17 for integration testing and catalog listing.",
      "price": 37,
      "stock": 27,
      "categoryId": 5,
      "categoryName": "Lifestyle",
      "imageUrl": "https://picsum.photos/seed/ecom-17/600/600",
      "rating": 3.7,
      "tag": null,
      "isActive": true
    },
    {
      "id": 18,
      "name": "Demo Product 18",
      "description": "Seeded demo product 18 for integration testing and catalog listing.",
      "price": 38,
      "stock": 28,
      "categoryId": 6,
      "categoryName": "Creator",
      "imageUrl": "https://picsum.photos/seed/ecom-18/600/600",
      "rating": 3.8,
      "tag": null,
      "isActive": true
    },
    {
      "id": 19,
      "name": "Demo Product 19",
      "description": "Seeded demo product 19 for integration testing and catalog listing.",
      "price": 39,
      "stock": 29,
      "categoryId": 7,
      "categoryName": "Mobile",
      "imageUrl": "https://picsum.photos/seed/ecom-19/600/600",
      "rating": 3.9,
      "tag": null,
      "isActive": true
    },
    {
      "id": 20,
      "name": "Demo Product 20",
      "description": "Seeded demo product 20 for integration testing and catalog listing.",
      "price": 40,
      "stock": 30,
      "categoryId": 8,
      "categoryName": "Smart Home",
      "imageUrl": "https://picsum.photos/seed/ecom-20/600/600",
      "rating": 4,
      "tag": "Featured",
      "isActive": true
    }
  ],
  "pageable": {
    "sort": {
      "sorted": false,
      "unsorted": true,
      "empty": true
    },
    "offset": 0,
    "pageSize": 20,
    "pageNumber": 0,
    "unpaged": false,
    "paged": true
  },
  "last": false,
  "totalElements": 150,
  "totalPages": 8,
  "number": 0,
  "sort": {
    "sorted": false,
    "unsorted": true,
    "empty": true
  },
  "numberOfElements": 20,
  "first": true,
  "size": 20,
  "empty": false
}